<?xml version="1.0" encoding="UTF-8"?>
<svg width="120px" height="120px" viewBox="0 0 120 120" version="1.1" xmlns="http://www.w3.org/2000/svg" xmlns:xlink="http://www.w3.org/1999/xlink">
    <!-- Generator: Sketch 53.2 (72643) - https://sketchapp.com -->
    <title>btn_app_monitoring_pushed</title>
    <desc>Created with Sketch.</desc>
    <g id="spec" stroke="none" stroke-width="1" fill="none" fill-rule="evenodd">
        <g id="Artboard" transform="translate(-56.000000, -1216.000000)">
            <g id="btn_app_monitoring_pushed" transform="translate(56.000000, 1216.000000)">
                <rect id="Rectangle-Copy-85" fill="#000000" x="0" y="0" width="120" height="120" rx="6"></rect>
                <g id="Group-58" transform="translate(6.000000, 13.000000)">
                    <path d="M79.0043321,22.4 C72.6629988,22.4 67.0059108,26.2862841 64.8739854,32.1054609 C62.7420601,37.9246377 64.5955854,44.4226783 69.5053241,48.3354899 C70.9109348,46.6594319 72.3190201,44.9833739 73.7271054,43.3061101 C67.6654094,38.4744812 71.1707748,28.8980406 79.0043321,28.8980406 C86.8378894,28.8980406 90.3457294,38.4744812 84.2827961,43.3061101 C85.6921188,44.9833739 87.0977294,46.6594319 88.5058148,48.3354899 C93.4143161,44.4226783 95.2678414,37.9246377 93.1346788,32.1054609 C91.0027534,26.2862841 85.3456654,22.4 79.0043321,22.4" id="Path-Copy-4" fill="#FFFFFF"></path>
                    <path d="M84.2923302,29.4562385 C80.3243454,26.6631487 74.8628667,27.240989 71.5833635,30.8017975 C68.3086166,34.3626061 68.2551077,39.7764885 71.4620765,43.3970736 C70.7795403,44.2198806 70.095815,45.0438597 69.4132788,45.8666667 C64.8638302,41.1466614 64.6997361,33.7906263 69.0327709,28.8783983 C73.3669946,23.9638261 80.7797659,23.1023402 86.1556303,26.88819 C85.5325485,27.7438155 84.9130339,28.600613 84.2923302,29.4562385" id="Path-Copy-5" fill="#000000"></path>
                    <path d="M40.4332897,70.3333333 L38.4823492,84.3333333 L67.1176508,84.3333333 L65.1667103,70.3333333 L40.4332897,70.3333333 Z" id="Rectangle-Copy-98" stroke="#FFFFFF" stroke-width="2" fill-rule="nonzero"></path>
                    <rect id="Rectangle-Copy-99" fill="#FFFFFF" fill-rule="nonzero" x="37.3333333" y="87.4666667" width="30.9333333" height="2.13333333"></rect>
                    <polyline id="Path-2-Copy" stroke="#FFFFFF" fill-rule="nonzero" points="1.06666667 35.9068273 5.05184763 35.9068273 9.8101537 25.5807229 17.3255758 49.0666667 27.5515152 14.9333333 34.5212121 40.8417671 50.1333333 40.8417671"></polyline>
                    <circle id="Oval-Copy-4" fill="#FFFFFF" fill-rule="nonzero" cx="51.7333333" cy="41.0666667" r="3.73333333"></circle>
                    <rect id="Rectangle-Copy-100" stroke="#FFFFFF" stroke-width="2" fill-rule="nonzero" x="1" y="1" width="104.666667" height="69.4666667" rx="4"></rect>
                </g>
            </g>
        </g>
    </g>
</svg>