<?xml version="1.0" encoding="UTF-8"?>
<svg width="120px" height="120px" viewBox="0 0 120 120" version="1.1" xmlns="http://www.w3.org/2000/svg" xmlns:xlink="http://www.w3.org/1999/xlink">
    <!-- Generator: Sketch 53.2 (72643) - https://sketchapp.com -->
    <title>btn_app_om_default</title>
    <desc>Created with Sketch.</desc>
    <g id="spec" stroke="none" stroke-width="1" fill="none" fill-rule="evenodd">
        <g id="Artboard" transform="translate(-866.000000, -1042.000000)">
            <g id="btn_app_om_default" transform="translate(866.000000, 1042.000000)">
                <g id="Group-28">
                    <rect id="Rectangle-Copy-94" fill="#000000" x="0" y="0" width="120" height="120" rx="6"></rect>
                    <g id="Group-14-Copy-2" transform="translate(21.000000, 23.000000)" stroke-width="2">
                        <path d="M11,63 L11,8 C11,3.582 14.582,0 19,0 L69.5,0" id="Stroke-1" stroke="#81848B"></path>
                        <path d="M16,12.5 L41.848,12.5" id="Stroke-3" stroke="#6699F0"></path>
                        <path d="M22,20.5 L35.369,20.5" id="Stroke-5" stroke="#6699F0"></path>
                        <path d="M22,29.5 L50.521,29.5" id="Stroke-7" stroke="#6699F0"></path>
                        <path d="M31,37.5 L56.848,37.5" id="Stroke-9" stroke="#6699F0"></path>
                        <path d="M31,46.5 L47.935,46.5" id="Stroke-11" stroke="#6699F0"></path>
                        <path d="M52,75 C46.478,75 42,70.522 42,65 L0,65 C0,70.522 4.478,75 10,75 L52,75 C57.522,75 62,70.522 62,65 L62,8 C62,3.582 65.582,0 70,0 C74.418,0 78,3.582 78,8 L64.5,8" id="Stroke-13" stroke="#81848B"></path>
                    </g>
                </g>
            </g>
        </g>
    </g>
</svg>