<?xml version="1.0" encoding="UTF-8"?>
<svg width="120px" height="120px" viewBox="0 0 120 120" version="1.1" xmlns="http://www.w3.org/2000/svg" xmlns:xlink="http://www.w3.org/1999/xlink">
    <!-- Generator: Sketch 53.2 (72643) - https://sketchapp.com -->
    <title>btn_app_om_pushed</title>
    <desc>Created with Sketch.</desc>
    <g id="spec" stroke="none" stroke-width="1" fill="none" fill-rule="evenodd">
        <g id="Artboard" transform="translate(-866.000000, -1216.000000)">
            <g id="btn_app_om_pushed" transform="translate(866.000000, 1216.000000)">
                <rect id="Rectangle-Copy-94" fill="#000000" x="0" y="0" width="120" height="120" rx="6"></rect>
                <g id="Group-71" transform="translate(18.000000, 18.000000)" stroke="#FFFFFF" stroke-width="2">
                    <g id="Group-70" transform="translate(0.000000, 0.000000)">
                        <path d="M11.7333333,67.2 L11.7333333,8.53333333 C11.7333333,3.8208 15.5541333,0 20.2666667,0 L74.1333333,0" id="Stroke-1"></path>
                        <path d="M17.0666667,13.3333333 L44.6378667,13.3333333" id="Stroke-3"></path>
                        <path d="M23.4666667,21.8666667 L37.7269333,21.8666667" id="Stroke-5"></path>
                        <path d="M23.4666667,31.4666667 L53.8890667,31.4666667" id="Stroke-7"></path>
                        <path d="M33.0666667,40 L60.6378667,40" id="Stroke-9"></path>
                        <path d="M33.0666667,49.6 L51.1306667,49.6" id="Stroke-11"></path>
                        <path d="M55.4666667,80 C49.5765333,80 44.8,75.2234667 44.8,69.3333333 L0,69.3333333 C0,75.2234667 4.77653333,80 10.6666667,80 L55.4666667,80 C61.3568,80 66.1333333,75.2234667 66.1333333,69.3333333 L66.1333333,8.53333333 C66.1333333,3.8208 69.9541333,0 74.6666667,0 C79.3792,0 83.2,3.8208 83.2,8.53333333 L68.8,8.53333333" id="Stroke-13"></path>
                    </g>
                </g>
            </g>
        </g>
    </g>
</svg>