<?xml version="1.0" encoding="UTF-8"?>
<svg width="290px" height="80px" viewBox="0 0 290 80" version="1.1" xmlns="http://www.w3.org/2000/svg" xmlns:xlink="http://www.w3.org/1999/xlink">
    <!-- Generator: Sketch 53.2 (72643) - https://sketchapp.com -->
    <title>title_blue_bar</title>
    <desc>Created with Sketch.</desc>
    <defs>
        <linearGradient x1="100%" y1="53.8049941%" x2="27.1563403%" y2="48.2616002%" id="linearGradient-1">
            <stop stop-color="#666BF0" offset="0%"></stop>
            <stop stop-color="#6699F0" offset="100%"></stop>
        </linearGradient>
    </defs>
    <g id="spec" stroke="none" stroke-width="1" fill="none" fill-rule="evenodd">
        <g id="Artboard" transform="translate(-875.000000, -72.000000)" fill="url(#linearGradient-1)" fill-rule="nonzero">
            <path d="M875,72 L1165,72 L1135.14024,142.25825 C1132.6299,148.16495 1126.83297,152 1120.41495,152 L875,152 L875,72 Z" id="title_blue_bar"></path>
        </g>
    </g>
</svg>