<svg version="1.1"
	 id="Layer_1" xmlns:v="http://schemas.microsoft.com/visio/2003/SVGExtensions/" xmlns:ev="http://www.w3.org/2001/xml-events"
	 xmlns="http://www.w3.org/2000/svg" xmlns:xlink="http://www.w3.org/1999/xlink" x="0px" y="0px" width="97.08px" height="38.26px"
	 viewBox="18.243 18.244 97.08 38.26" enable-background="new 18.243 18.244 97.08 38.26" xml:space="preserve">
		<linearGradient id="anim"  fy="0">
      <stop offset="0" stop-color="#148F01">
		</stop>
		<stop offset=".7" stop-color="#9AFC8A">
		</stop>
    </linearGradient>
        
		<g transform="translate(18.24,-26.7439)">
			<g>
				<path fill="#646464"  d="M96.083,44.988c0.55,0,1,0.45,1,1v34.85c0,0.55-0.45,1-1,1h-10.75c-0.55,0-1-0.45-1-1v-5.09
					c0-0.55-0.45-1-1-1h-29.18c-0.55,0-1,0.45-1,1v6.5c0,0.55-0.45,1-1,1h-12.18c-0.55,0-1-0.45-1-1v-6.5c0-0.55-0.45-1-1-1H1.003
					c-0.55,0-1-0.45-1-1v-16.42c0-0.55,0.45-1,1-1h36.97c0.55,0,1-0.45,1-1v-9.34c0-0.55,0.45-1,1-1H96.083z">
					
        </path>
			</g>
		</g>
</svg>
