<svg version="1.1"
	 id="Layer_1" xmlns:v="http://schemas.microsoft.com/visio/2003/SVGExtensions/" xmlns:ev="http://www.w3.org/2001/xml-events"
	 xmlns="http://www.w3.org/2000/svg" xmlns:xlink="http://www.w3.org/1999/xlink" x="0px" y="0px" width="76.68px" height="38.26px"
	 viewBox="18.239 18.244 76.68 38.26" enable-background="new 18.239 18.244 76.68 38.26" xml:space="preserve">
		
			<linearGradient id="anim"  x1="0%" y1="100%">
      <stop offset="0%" stop-color="red" stop-opacity="1">
      		<animate attributeName="stop-color" 
      			values="red;rgba(255,0,0,0.3);red" dur="0ms" repeatCount="indefinite"/>
		</stop>
    </linearGradient>
        
        <g transform="translate(18.24,-18.24)">
			<g>
				<path fill="url(#anim)" d="M75.678,44.984c0.55,0,1,0.45,1,1v17.84c0,0.55-0.45,1-1,1h-3.67c-0.55,0-1,0.45-1,1v7.92
					c0,0.55-0.45,1-1,1H0.999c-0.55,0-1-0.45-1-1v-32.01c0-0.55,0.45-1,1-1h27.91c0.55,0,1-0.45,1-1v-2.25c0-0.55,0.45-1,1-1h24.93
					c0.55,0,1,0.45,1,1v6.5c0,0.55,0.45,1,1,1H75.678z" >
					
        </path>
			</g>
		</g>
</svg>
