<?xml version="1.0" encoding="UTF-8"?>
<svg width="320px" height="48px" viewBox="0 0 320 48" version="1.1" xmlns="http://www.w3.org/2000/svg" xmlns:xlink="http://www.w3.org/1999/xlink">
    <!-- Generator: Sketch 53.2 (72643) - https://sketchapp.com -->
    <title>btn_login_default</title>
    <desc>Created with Sketch.</desc>
    <g id="spec" stroke="none" stroke-width="1" fill="none" fill-rule="evenodd">
        <g id="Artboard" transform="translate(-109.000000, -419.000000)" fill="#6699F0" fill-rule="nonzero">
            <g id="btn_login_default" transform="translate(109.000000, 419.000000)">
                <rect id="Rectangle-Copy-21" x="0" y="0" width="320" height="48" rx="2"></rect>
            </g>
        </g>
    </g>
</svg>